50111011;测试武器
50111021;测试防具
50121011;七星宝剑
50121012;七星宝剑
50121021;七星玉冠
50121022;七星玉冠
50121031;七星战甲
50121032;七星战甲
50121041;七星护腕
50121042;七星护腕
50121051;七星法履
50121052;七星法履
50121061;七星束带
50121062;七星束带
50121071;七星项链
50121072;七星项链
50121081;七星手镯
50121082;七星手镯
50121091;七星戒指
50121092;七星戒指
50121101;七星玉佩
50121102;七星玉佩
50131011;七星宝剑
50131012;七星宝剑
50131021;七星玉冠
50131022;七星玉冠
50131031;七星战甲
50131032;七星战甲
50131041;七星护腕
50131042;七星护腕
50131051;七星法履
50131052;七星法履
50131061;七星束带
50131062;七星束带
50131071;七星项链
50131072;七星项链
50131081;七星手镯
50131082;七星手镯
50131091;七星戒指
50131092;七星戒指
50131101;七星玉佩
50131102;七星玉佩
50132011;七星宝剑
50132012;七星宝剑
50132021;七星玉冠
50132022;七星玉冠
50132031;七星战甲
50132032;七星战甲
50132041;七星护腕
50132042;七星护腕
50132051;七星法履
50132052;七星法履
50132061;七星束带
50132062;七星束带
50132071;七星项链
50132072;七星项链
50132081;七星手镯
50132082;七星手镯
50132091;七星戒指
50132092;七星戒指
50132101;七星玉佩
50132102;七星玉佩
50142011;七星宝剑
50142012;七星宝剑
50142021;七星玉冠
50142022;七星玉冠
50142031;七星战甲
50142032;七星战甲
50142041;七星护腕
50142042;七星护腕
50142051;七星法履
50142052;七星法履
50142061;七星束带
50142062;七星束带
50142071;七星项链
50142072;七星项链
50142081;七星手镯
50142082;七星手镯
50142091;七星戒指
50142092;七星戒指
50142101;七星玉佩
50142102;七星玉佩
50143011;七星宝剑
50143012;七星宝剑
50143021;七星玉冠
50143022;七星玉冠
50143031;七星战甲
50143032;七星战甲
50143041;七星护腕
50143042;七星护腕
50143051;七星法履
50143052;七星法履
50143061;七星束带
50143062;七星束带
50143071;七星项链
50143072;七星项链
50143081;七星手镯
50143082;七星手镯
50143091;七星戒指
50143092;七星戒指
50143101;七星玉佩
50143102;七星玉佩
50152011;七星宝剑
50152012;七星宝剑
50152021;七星玉冠
50152022;七星玉冠
50152031;七星战甲
50152032;七星战甲
50152041;七星护腕
50152042;七星护腕
50152051;七星法履
50152052;七星法履
50152061;七星束带
50152062;七星束带
50152071;七星项链
50152072;七星项链
50152081;七星手镯
50152082;七星手镯
50152091;七星戒指
50152092;七星戒指
50152101;七星玉佩
50152102;七星玉佩
50153011;七星宝剑
50153012;七星宝剑
50153021;七星玉冠
50153022;七星玉冠
50153031;七星战甲
50153032;七星战甲
50153041;七星护腕
50153042;七星护腕
50153051;七星法履
50153052;七星法履
50153061;七星束带
50153062;七星束带
50153071;七星项链
50153072;七星项链
50153081;七星手镯
50153082;七星手镯
50153091;七星戒指
50153092;七星戒指
50153101;七星玉佩
50153102;七星玉佩
50154011;七星宝剑
50154012;七星宝剑
50154021;七星玉冠
50154022;七星玉冠
50154031;七星战甲
50154032;七星战甲
50154041;七星护腕
50154042;七星护腕
50154051;七星法履
50154052;七星法履
50154061;七星束带
50154062;七星束带
50154071;七星项链
50154072;七星项链
50154081;七星手镯
50154082;七星手镯
50154091;七星戒指
50154092;七星戒指
50154101;七星玉佩
50154102;七星玉佩
50165011;七星宝剑
50165012;七星宝剑
50165021;七星玉冠
50165022;七星玉冠
50165031;七星战甲
50165032;七星战甲
50165041;七星护腕
50165042;七星护腕
50165051;七星法履
50165052;七星法履
50165061;七星束带
50165062;七星束带
50165071;七星项链
50165072;七星项链
50165081;七星手镯
50165082;七星手镯
50165091;七星戒指
50165092;七星戒指
50165101;七星玉佩
50165102;七星玉佩
50221011;玲珑宝剑
50221012;玲珑宝剑
50221021;玲珑玉冠
50221022;玲珑玉冠
50221031;玲珑战甲
50221032;玲珑战甲
50221041;玲珑护腕
50221042;玲珑护腕
50221051;玲珑法履
50221052;玲珑法履
50221061;玲珑束带
50221062;玲珑束带
50221071;玲珑项链
50221072;玲珑项链
50221081;玲珑手镯
50221082;玲珑手镯
50221091;玲珑戒指
50221092;玲珑戒指
50221101;玲珑玉佩
50221102;玲珑玉佩
50231011;玲珑宝剑
50231012;玲珑宝剑
50231021;玲珑玉冠
50231022;玲珑玉冠
50231031;玲珑战甲
50231032;玲珑战甲
50231041;玲珑护腕
50231042;玲珑护腕
50231051;玲珑法履
50231052;玲珑法履
50231061;玲珑束带
50231062;玲珑束带
50231071;玲珑项链
50231072;玲珑项链
50231081;玲珑手镯
50231082;玲珑手镯
50231091;玲珑戒指
50231092;玲珑戒指
50231101;玲珑玉佩
50231102;玲珑玉佩
50232011;玲珑宝剑
50232012;玲珑宝剑
50232021;玲珑玉冠
50232022;玲珑玉冠
50232031;玲珑战甲
50232032;玲珑战甲
50232041;玲珑护腕
50232042;玲珑护腕
50232051;玲珑法履
50232052;玲珑法履
50232061;玲珑束带
50232062;玲珑束带
50232071;玲珑项链
50232072;玲珑项链
50232081;玲珑手镯
50232082;玲珑手镯
50232091;玲珑戒指
50232092;玲珑戒指
50232101;玲珑玉佩
50232102;玲珑玉佩
50242011;玲珑宝剑
50242012;玲珑宝剑
50242021;玲珑玉冠
50242022;玲珑玉冠
50242031;玲珑战甲
50242032;玲珑战甲
50242041;玲珑护腕
50242042;玲珑护腕
50242051;玲珑法履
50242052;玲珑法履
50242061;玲珑束带
50242062;玲珑束带
50242071;玲珑项链
50242072;玲珑项链
50242081;玲珑手镯
50242082;玲珑手镯
50242091;玲珑戒指
50242092;玲珑戒指
50242101;玲珑玉佩
50242102;玲珑玉佩
50243011;玲珑宝剑
50243012;玲珑宝剑
50243021;玲珑玉冠
50243022;玲珑玉冠
50243031;玲珑战甲
50243032;玲珑战甲
50243041;玲珑护腕
50243042;玲珑护腕
50243051;玲珑法履
50243052;玲珑法履
50243061;玲珑束带
50243062;玲珑束带
50243071;玲珑项链
50243072;玲珑项链
50243081;玲珑手镯
50243082;玲珑手镯
50243091;玲珑戒指
50243092;玲珑戒指
50243101;玲珑玉佩
50243102;玲珑玉佩
50252011;玲珑宝剑
50252012;玲珑宝剑
50252021;玲珑玉冠
50252022;玲珑玉冠
50252031;玲珑战甲
50252032;玲珑战甲
50252041;玲珑护腕
50252042;玲珑护腕
50252051;玲珑法履
50252052;玲珑法履
50252061;玲珑束带
50252062;玲珑束带
50252071;玲珑项链
50252072;玲珑项链
50252081;玲珑手镯
50252082;玲珑手镯
50252091;玲珑戒指
50252092;玲珑戒指
50252101;玲珑玉佩
50252102;玲珑玉佩
50253011;玲珑宝剑
50253012;玲珑宝剑
50253021;玲珑玉冠
50253022;玲珑玉冠
50253031;玲珑战甲
50253032;玲珑战甲
50253041;玲珑护腕
50253042;玲珑护腕
50253051;玲珑法履
50253052;玲珑法履
50253061;玲珑束带
50253062;玲珑束带
50253071;玲珑项链
50253072;玲珑项链
50253081;玲珑手镯
50253082;玲珑手镯
50253091;玲珑戒指
50253092;玲珑戒指
50253101;玲珑玉佩
50253102;玲珑玉佩
50254011;玲珑宝剑
50254012;玲珑宝剑
50254021;玲珑玉冠
50254022;玲珑玉冠
50254031;玲珑战甲
50254032;玲珑战甲
50254041;玲珑护腕
50254042;玲珑护腕
50254051;玲珑法履
50254052;玲珑法履
50254061;玲珑束带
50254062;玲珑束带
50254071;玲珑项链
50254072;玲珑项链
50254081;玲珑手镯
50254082;玲珑手镯
50254091;玲珑戒指
50254092;玲珑戒指
50254101;玲珑玉佩
50254102;玲珑玉佩
50265011;玲珑宝剑
50265012;玲珑宝剑
50265021;玲珑玉冠
50265022;玲珑玉冠
50265031;玲珑战甲
50265032;玲珑战甲
50265041;玲珑护腕
50265042;玲珑护腕
50265051;玲珑法履
50265052;玲珑法履
50265061;玲珑束带
50265062;玲珑束带
50265071;玲珑项链
50265072;玲珑项链
50265081;玲珑手镯
50265082;玲珑手镯
50265091;玲珑戒指
50265092;玲珑戒指
50265101;玲珑玉佩
50265102;玲珑玉佩
50321011;天机灵剑
50321012;天机灵剑
50321021;天机玉冠
50321022;天机玉冠
50321031;天机战甲
50321032;天机战甲
50321041;天机护腕
50321042;天机护腕
50321051;天机法履
50321052;天机法履
50321061;天机束带
50321062;天机束带
50321071;天机项链
50321072;天机项链
50321081;天机手镯
50321082;天机手镯
50321091;天机戒指
50321092;天机戒指
50321101;天机玉佩
50321102;天机玉佩
50331011;天机灵剑
50331012;天机灵剑
50331021;天机玉冠
50331022;天机玉冠
50331031;天机战甲
50331032;天机战甲
50331041;天机护腕
50331042;天机护腕
50331051;天机法履
50331052;天机法履
50331061;天机束带
50331062;天机束带
50331071;天机项链
50331072;天机项链
50331081;天机手镯
50331082;天机手镯
50331091;天机戒指
50331092;天机戒指
50331101;天机玉佩
50331102;天机玉佩
50332011;天机灵剑
50332012;天机灵剑
50332021;天机玉冠
50332022;天机玉冠
50332031;天机战甲
50332032;天机战甲
50332041;天机护腕
50332042;天机护腕
50332051;天机法履
50332052;天机法履
50332061;天机束带
50332062;天机束带
50332071;天机项链
50332072;天机项链
50332081;天机手镯
50332082;天机手镯
50332091;天机戒指
50332092;天机戒指
50332101;天机玉佩
50332102;天机玉佩
50342011;天机灵剑
50342012;天机灵剑
50342021;天机玉冠
50342022;天机玉冠
50342031;天机战甲
50342032;天机战甲
50342041;天机护腕
50342042;天机护腕
50342051;天机法履
50342052;天机法履
50342061;天机束带
50342062;天机束带
50342071;天机项链
50342072;天机项链
50342081;天机手镯
50342082;天机手镯
50342091;天机戒指
50342092;天机戒指
50342101;天机玉佩
50342102;天机玉佩
50343011;天机灵剑
50343012;天机灵剑
50343021;天机玉冠
50343022;天机玉冠
50343031;天机战甲
50343032;天机战甲
50343041;天机护腕
50343042;天机护腕
50343051;天机法履
50343052;天机法履
50343061;天机束带
50343062;天机束带
50343071;天机项链
50343072;天机项链
50343081;天机手镯
50343082;天机手镯
50343091;天机戒指
50343092;天机戒指
50343101;天机玉佩
50343102;天机玉佩
50352011;天机灵剑
50352012;天机灵剑
50352021;天机玉冠
50352022;天机玉冠
50352031;天机战甲
50352032;天机战甲
50352041;天机护腕
50352042;天机护腕
50352051;天机法履
50352052;天机法履
50352061;天机束带
50352062;天机束带
50352071;天机项链
50352072;天机项链
50352081;天机手镯
50352082;天机手镯
50352091;天机戒指
50352092;天机戒指
50352101;天机玉佩
50352102;天机玉佩
50353011;天机灵剑
50353012;天机灵剑
50353021;天机玉冠
50353022;天机玉冠
50353031;天机战甲
50353032;天机战甲
50353041;天机护腕
50353042;天机护腕
50353051;天机法履
50353052;天机法履
50353061;天机束带
50353062;天机束带
50353071;天机项链
50353072;天机项链
50353081;天机手镯
50353082;天机手镯
50353091;天机戒指
50353092;天机戒指
50353101;天机玉佩
50353102;天机玉佩
50354011;天机灵剑
50354012;天机灵剑
50354021;天机玉冠
50354022;天机玉冠
50354031;天机战甲
50354032;天机战甲
50354041;天机护腕
50354042;天机护腕
50354051;天机法履
50354052;天机法履
50354061;天机束带
50354062;天机束带
50354071;天机项链
50354072;天机项链
50354081;天机手镯
50354082;天机手镯
50354091;天机戒指
50354092;天机戒指
50354101;天机玉佩
50354102;天机玉佩
50365011;天机灵剑
50365012;天机灵剑
50365021;天机玉冠
50365022;天机玉冠
50365031;天机战甲
50365032;天机战甲
50365041;天机护腕
50365042;天机护腕
50365051;天机法履
50365052;天机法履
50365061;天机束带
50365062;天机束带
50365071;天机项链
50365072;天机项链
50365081;天机手镯
50365082;天机手镯
50365091;天机戒指
50365092;天机戒指
50365101;天机玉佩
50365102;天机玉佩
50421011;龙渊灵剑
50421012;龙渊灵剑
50421021;龙渊玉冠
50421022;龙渊玉冠
50421031;龙渊战甲
50421032;龙渊战甲
50421041;龙渊护腕
50421042;龙渊护腕
50421051;龙渊法履
50421052;龙渊法履
50421061;龙渊束带
50421062;龙渊束带
50421071;龙渊项链
50421072;龙渊项链
50421081;龙渊手镯
50421082;龙渊手镯
50421091;龙渊戒指
50421092;龙渊戒指
50421101;龙渊玉佩
50421102;龙渊玉佩
50431011;龙渊灵剑
50431012;龙渊灵剑
50431021;龙渊玉冠
50431022;龙渊玉冠
50431031;龙渊战甲
50431032;龙渊战甲
50431041;龙渊护腕
50431042;龙渊护腕
50431051;龙渊法履
50431052;龙渊法履
50431061;龙渊束带
50431062;龙渊束带
50431071;龙渊项链
50431072;龙渊项链
50431081;龙渊手镯
50431082;龙渊手镯
50431091;龙渊戒指
50431092;龙渊戒指
50431101;龙渊玉佩
50431102;龙渊玉佩
50432011;龙渊灵剑
50432012;龙渊灵剑
50432021;龙渊玉冠
50432022;龙渊玉冠
50432031;龙渊战甲
50432032;龙渊战甲
50432041;龙渊护腕
50432042;龙渊护腕
50432051;龙渊法履
50432052;龙渊法履
50432061;龙渊束带
50432062;龙渊束带
50432071;龙渊项链
50432072;龙渊项链
50432081;龙渊手镯
50432082;龙渊手镯
50432091;龙渊戒指
50432092;龙渊戒指
50432101;龙渊玉佩
50432102;龙渊玉佩
50442011;龙渊灵剑
50442012;龙渊灵剑
50442021;龙渊玉冠
50442022;龙渊玉冠
50442031;龙渊战甲
50442032;龙渊战甲
50442041;龙渊护腕
50442042;龙渊护腕
50442051;龙渊法履
50442052;龙渊法履
50442061;龙渊束带
50442062;龙渊束带
50442071;龙渊项链
50442072;龙渊项链
50442081;龙渊手镯
50442082;龙渊手镯
50442091;龙渊戒指
50442092;龙渊戒指
50442101;龙渊玉佩
50442102;龙渊玉佩
50443011;龙渊灵剑
50443012;龙渊灵剑
50443021;龙渊玉冠
50443022;龙渊玉冠
50443031;龙渊战甲
50443032;龙渊战甲
50443041;龙渊护腕
50443042;龙渊护腕
50443051;龙渊法履
50443052;龙渊法履
50443061;龙渊束带
50443062;龙渊束带
50443071;龙渊项链
50443072;龙渊项链
50443081;龙渊手镯
50443082;龙渊手镯
50443091;龙渊戒指
50443092;龙渊戒指
50443101;龙渊玉佩
50443102;龙渊玉佩
50452011;龙渊灵剑
50452012;龙渊灵剑
50452021;龙渊玉冠
50452022;龙渊玉冠
50452031;龙渊战甲
50452032;龙渊战甲
50452041;龙渊护腕
50452042;龙渊护腕
50452051;龙渊法履
50452052;龙渊法履
50452061;龙渊束带
50452062;龙渊束带
50452071;龙渊项链
50452072;龙渊项链
50452081;龙渊手镯
50452082;龙渊手镯
50452091;龙渊戒指
50452092;龙渊戒指
50452101;龙渊玉佩
50452102;龙渊玉佩
50453011;龙渊灵剑
50453012;龙渊灵剑
50453021;龙渊玉冠
50453022;龙渊玉冠
50453031;龙渊战甲
50453032;龙渊战甲
50453041;龙渊护腕
50453042;龙渊护腕
50453051;龙渊法履
50453052;龙渊法履
50453061;龙渊束带
50453062;龙渊束带
50453071;龙渊项链
50453072;龙渊项链
50453081;龙渊手镯
50453082;龙渊手镯
50453091;龙渊戒指
50453092;龙渊戒指
50453101;龙渊玉佩
50453102;龙渊玉佩
50454011;龙渊灵剑
50454012;龙渊灵剑
50454021;龙渊玉冠
50454022;龙渊玉冠
50454031;龙渊战甲
50454032;龙渊战甲
50454041;龙渊护腕
50454042;龙渊护腕
50454051;龙渊法履
50454052;龙渊法履
50454061;龙渊束带
50454062;龙渊束带
50454071;龙渊项链
50454072;龙渊项链
50454081;龙渊手镯
50454082;龙渊手镯
50454091;龙渊戒指
50454092;龙渊戒指
50454101;龙渊玉佩
50454102;龙渊玉佩
50465011;龙渊灵剑
50465012;龙渊灵剑
50465021;龙渊玉冠
50465022;龙渊玉冠
50465031;龙渊战甲
50465032;龙渊战甲
50465041;龙渊护腕
50465042;龙渊护腕
50465051;龙渊法履
50465052;龙渊法履
50465061;龙渊束带
50465062;龙渊束带
50465071;龙渊项链
50465072;龙渊项链
50465081;龙渊手镯
50465082;龙渊手镯
50465091;龙渊戒指
50465092;龙渊戒指
50465101;龙渊玉佩
50465102;龙渊玉佩
50521011;赤霄法剑
50521012;赤霄法剑
50521021;赤霄玉冠
50521022;赤霄玉冠
50521031;赤霄战甲
50521032;赤霄战甲
50521041;赤霄护腕
50521042;赤霄护腕
50521051;赤霄法履
50521052;赤霄法履
50521061;赤霄束带
50521062;赤霄束带
50521071;赤霄项链
50521072;赤霄项链
50521081;赤霄手镯
50521082;赤霄手镯
50521091;赤霄戒指
50521092;赤霄戒指
50521101;赤霄玉佩
50521102;赤霄玉佩
50531011;赤霄法剑
50531012;赤霄法剑
50531021;赤霄玉冠
50531022;赤霄玉冠
50531031;赤霄战甲
50531032;赤霄战甲
50531041;赤霄护腕
50531042;赤霄护腕
50531051;赤霄法履
50531052;赤霄法履
50531061;赤霄束带
50531062;赤霄束带
50531071;赤霄项链
50531072;赤霄项链
50531081;赤霄手镯
50531082;赤霄手镯
50531091;赤霄戒指
50531092;赤霄戒指
50531101;赤霄玉佩
50531102;赤霄玉佩
50532011;赤霄法剑
50532012;赤霄法剑
50532021;赤霄玉冠
50532022;赤霄玉冠
50532031;赤霄战甲
50532032;赤霄战甲
50532041;赤霄护腕
50532042;赤霄护腕
50532051;赤霄法履
50532052;赤霄法履
50532061;赤霄束带
50532062;赤霄束带
50532071;赤霄项链
50532072;赤霄项链
50532081;赤霄手镯
50532082;赤霄手镯
50532091;赤霄戒指
50532092;赤霄戒指
50532101;赤霄玉佩
50532102;赤霄玉佩
50542011;赤霄法剑
50542012;赤霄法剑
50542021;赤霄玉冠
50542022;赤霄玉冠
50542031;赤霄战甲
50542032;赤霄战甲
50542041;赤霄护腕
50542042;赤霄护腕
50542051;赤霄法履
50542052;赤霄法履
50542061;赤霄束带
50542062;赤霄束带
50542071;赤霄项链
50542072;赤霄项链
50542081;赤霄手镯
50542082;赤霄手镯
50542091;赤霄戒指
50542092;赤霄戒指
50542101;赤霄玉佩
50542102;赤霄玉佩
50543011;赤霄法剑
50543012;赤霄法剑
50543021;赤霄玉冠
50543022;赤霄玉冠
50543031;赤霄战甲
50543032;赤霄战甲
50543041;赤霄护腕
50543042;赤霄护腕
50543051;赤霄法履
50543052;赤霄法履
50543061;赤霄束带
50543062;赤霄束带
50543071;赤霄项链
50543072;赤霄项链
50543081;赤霄手镯
50543082;赤霄手镯
50543091;赤霄戒指
50543092;赤霄戒指
50543101;赤霄玉佩
50543102;赤霄玉佩
50552011;赤霄法剑
50552012;赤霄法剑
50552021;赤霄玉冠
50552022;赤霄玉冠
50552031;赤霄战甲
50552032;赤霄战甲
50552041;赤霄护腕
50552042;赤霄护腕
50552051;赤霄法履
50552052;赤霄法履
50552061;赤霄束带
50552062;赤霄束带
50552071;赤霄项链
50552072;赤霄项链
50552081;赤霄手镯
50552082;赤霄手镯
50552091;赤霄戒指
50552092;赤霄戒指
50552101;赤霄玉佩
50552102;赤霄玉佩
50553011;赤霄法剑
50553012;赤霄法剑
50553021;赤霄玉冠
50553022;赤霄玉冠
50553031;赤霄战甲
50553032;赤霄战甲
50553041;赤霄护腕
50553042;赤霄护腕
50553051;赤霄法履
50553052;赤霄法履
50553061;赤霄束带
50553062;赤霄束带
50553071;赤霄项链
50553072;赤霄项链
50553081;赤霄手镯
50553082;赤霄手镯
50553091;赤霄戒指
50553092;赤霄戒指
50553101;赤霄玉佩
50553102;赤霄玉佩
50554011;赤霄法剑
50554012;赤霄法剑
50554021;赤霄玉冠
50554022;赤霄玉冠
50554031;赤霄战甲
50554032;赤霄战甲
50554041;赤霄护腕
50554042;赤霄护腕
50554051;赤霄法履
50554052;赤霄法履
50554061;赤霄束带
50554062;赤霄束带
50554071;赤霄项链
50554072;赤霄项链
50554081;赤霄手镯
50554082;赤霄手镯
50554091;赤霄戒指
50554092;赤霄戒指
50554101;赤霄玉佩
50554102;赤霄玉佩
50565011;赤霄法剑
50565012;赤霄法剑
50565021;赤霄玉冠
50565022;赤霄玉冠
50565031;赤霄战甲
50565032;赤霄战甲
50565041;赤霄护腕
50565042;赤霄护腕
50565051;赤霄法履
50565052;赤霄法履
50565061;赤霄束带
50565062;赤霄束带
50565071;赤霄项链
50565072;赤霄项链
50565081;赤霄手镯
50565082;赤霄手镯
50565091;赤霄戒指
50565092;赤霄戒指
50565101;赤霄玉佩
50565102;赤霄玉佩
50621011;太虚法剑
50621012;太虚法剑
50621021;太虚玉冠
50621022;太虚玉冠
50621031;太虚战甲
50621032;太虚战甲
50621041;太虚护腕
50621042;太虚护腕
50621051;太虚法履
50621052;太虚法履
50621061;太虚束带
50621062;太虚束带
50621071;太虚项链
50621072;太虚项链
50621081;太虚手镯
50621082;太虚手镯
50621091;太虚戒指
50621092;太虚戒指
50621101;太虚玉佩
50621102;太虚玉佩
50631011;太虚法剑
50631012;太虚法剑
50631021;太虚玉冠
50631022;太虚玉冠
50631031;太虚战甲
50631032;太虚战甲
50631041;太虚护腕
50631042;太虚护腕
50631051;太虚法履
50631052;太虚法履
50631061;太虚束带
50631062;太虚束带
50631071;太虚项链
50631072;太虚项链
50631081;太虚手镯
50631082;太虚手镯
50631091;太虚戒指
50631092;太虚戒指
50631101;太虚玉佩
50631102;太虚玉佩
50632011;太虚法剑
50632012;太虚法剑
50632021;太虚玉冠
50632022;太虚玉冠
50632031;太虚战甲
50632032;太虚战甲
50632041;太虚护腕
50632042;太虚护腕
50632051;太虚法履
50632052;太虚法履
50632061;太虚束带
50632062;太虚束带
50632071;太虚项链
50632072;太虚项链
50632081;太虚手镯
50632082;太虚手镯
50632091;太虚戒指
50632092;太虚戒指
50632101;太虚玉佩
50632102;太虚玉佩
50642011;太虚法剑
50642012;太虚法剑
50642021;太虚玉冠
50642022;太虚玉冠
50642031;太虚战甲
50642032;太虚战甲
50642041;太虚护腕
50642042;太虚护腕
50642051;太虚法履
50642052;太虚法履
50642061;太虚束带
50642062;太虚束带
50642071;太虚项链
50642072;太虚项链
50642081;太虚手镯
50642082;太虚手镯
50642091;太虚戒指
50642092;太虚戒指
50642101;太虚玉佩
50642102;太虚玉佩
50643011;太虚法剑
50643012;太虚法剑
50643021;太虚玉冠
50643022;太虚玉冠
50643031;太虚战甲
50643032;太虚战甲
50643041;太虚护腕
50643042;太虚护腕
50643051;太虚法履
50643052;太虚法履
50643061;太虚束带
50643062;太虚束带
50643071;太虚项链
50643072;太虚项链
50643081;太虚手镯
50643082;太虚手镯
50643091;太虚戒指
50643092;太虚戒指
50643101;太虚玉佩
50643102;太虚玉佩
50652011;太虚法剑
50652012;太虚法剑
50652021;太虚玉冠
50652022;太虚玉冠
50652031;太虚战甲
50652032;太虚战甲
50652041;太虚护腕
50652042;太虚护腕
50652051;太虚法履
50652052;太虚法履
50652061;太虚束带
50652062;太虚束带
50652071;太虚项链
50652072;太虚项链
50652081;太虚手镯
50652082;太虚手镯
50652091;太虚戒指
50652092;太虚戒指
50652101;太虚玉佩
50652102;太虚玉佩
50653011;太虚法剑
50653012;太虚法剑
50653021;太虚玉冠
50653022;太虚玉冠
50653031;太虚战甲
50653032;太虚战甲
50653041;太虚护腕
50653042;太虚护腕
50653051;太虚法履
50653052;太虚法履
50653061;太虚束带
50653062;太虚束带
50653071;太虚项链
50653072;太虚项链
50653081;太虚手镯
50653082;太虚手镯
50653091;太虚戒指
50653092;太虚戒指
50653101;太虚玉佩
50653102;太虚玉佩
50654011;太虚法剑
50654012;太虚法剑
50654021;太虚玉冠
50654022;太虚玉冠
50654031;太虚战甲
50654032;太虚战甲
50654041;太虚护腕
50654042;太虚护腕
50654051;太虚法履
50654052;太虚法履
50654061;太虚束带
50654062;太虚束带
50654071;太虚项链
50654072;太虚项链
50654081;太虚手镯
50654082;太虚手镯
50654091;太虚戒指
50654092;太虚戒指
50654101;太虚玉佩
50654102;太虚玉佩
50665011;太虚法剑
50665012;太虚法剑
50665021;太虚玉冠
50665022;太虚玉冠
50665031;太虚战甲
50665032;太虚战甲
50665041;太虚护腕
50665042;太虚护腕
50665051;太虚法履
50665052;太虚法履
50665061;太虚束带
50665062;太虚束带
50665071;太虚项链
50665072;太虚项链
50665081;太虚手镯
50665082;太虚手镯
50665091;太虚戒指
50665092;太虚戒指
50665101;太虚玉佩
50665102;太虚玉佩
50721011;诛仙玄剑
50721012;诛仙玄剑
50721021;诛仙玉冠
50721022;诛仙玉冠
50721031;诛仙战甲
50721032;诛仙战甲
50721041;诛仙护腕
50721042;诛仙护腕
50721051;诛仙法履
50721052;诛仙法履
50721061;诛仙束带
50721062;诛仙束带
50721071;诛仙项链
50721072;诛仙项链
50721081;诛仙手镯
50721082;诛仙手镯
50721091;诛仙戒指
50721092;诛仙戒指
50721101;诛仙玉佩
50721102;诛仙玉佩
50731011;诛仙玄剑
50731012;诛仙玄剑
50731021;诛仙玉冠
50731022;诛仙玉冠
50731031;诛仙战甲
50731032;诛仙战甲
50731041;诛仙护腕
50731042;诛仙护腕
50731051;诛仙法履
50731052;诛仙法履
50731061;诛仙束带
50731062;诛仙束带
50731071;诛仙项链
50731072;诛仙项链
50731081;诛仙手镯
50731082;诛仙手镯
50731091;诛仙戒指
50731092;诛仙戒指
50731101;诛仙玉佩
50731102;诛仙玉佩
50732011;诛仙玄剑
50732012;诛仙玄剑
50732021;诛仙玉冠
50732022;诛仙玉冠
50732031;诛仙战甲
50732032;诛仙战甲
50732041;诛仙护腕
50732042;诛仙护腕
50732051;诛仙法履
50732052;诛仙法履
50732061;诛仙束带
50732062;诛仙束带
50732071;诛仙项链
50732072;诛仙项链
50732081;诛仙手镯
50732082;诛仙手镯
50732091;诛仙戒指
50732092;诛仙戒指
50732101;诛仙玉佩
50732102;诛仙玉佩
50742011;诛仙玄剑
50742012;诛仙玄剑
50742021;诛仙玉冠
50742022;诛仙玉冠
50742031;诛仙战甲
50742032;诛仙战甲
50742041;诛仙护腕
50742042;诛仙护腕
50742051;诛仙法履
50742052;诛仙法履
50742061;诛仙束带
50742062;诛仙束带
50742071;诛仙项链
50742072;诛仙项链
50742081;诛仙手镯
50742082;诛仙手镯
50742091;诛仙戒指
50742092;诛仙戒指
50742101;诛仙玉佩
50742102;诛仙玉佩
50743011;诛仙玄剑
50743012;诛仙玄剑
50743021;诛仙玉冠
50743022;诛仙玉冠
50743031;诛仙战甲
50743032;诛仙战甲
50743041;诛仙护腕
50743042;诛仙护腕
50743051;诛仙法履
50743052;诛仙法履
50743061;诛仙束带
50743062;诛仙束带
50743071;诛仙项链
50743072;诛仙项链
50743081;诛仙手镯
50743082;诛仙手镯
50743091;诛仙戒指
50743092;诛仙戒指
50743101;诛仙玉佩
50743102;诛仙玉佩
50752011;诛仙玄剑
50752012;诛仙玄剑
50752021;诛仙玉冠
50752022;诛仙玉冠
50752031;诛仙战甲
50752032;诛仙战甲
50752041;诛仙护腕
50752042;诛仙护腕
50752051;诛仙法履
50752052;诛仙法履
50752061;诛仙束带
50752062;诛仙束带
50752071;诛仙项链
50752072;诛仙项链
50752081;诛仙手镯
50752082;诛仙手镯
50752091;诛仙戒指
50752092;诛仙戒指
50752101;诛仙玉佩
50752102;诛仙玉佩
50753011;诛仙玄剑
50753012;诛仙玄剑
50753021;诛仙玉冠
50753022;诛仙玉冠
50753031;诛仙战甲
50753032;诛仙战甲
50753041;诛仙护腕
50753042;诛仙护腕
50753051;诛仙法履
50753052;诛仙法履
50753061;诛仙束带
50753062;诛仙束带
50753071;诛仙项链
50753072;诛仙项链
50753081;诛仙手镯
50753082;诛仙手镯
50753091;诛仙戒指
50753092;诛仙戒指
50753101;诛仙玉佩
50753102;诛仙玉佩
50754011;诛仙玄剑
50754012;诛仙玄剑
50754021;诛仙玉冠
50754022;诛仙玉冠
50754031;诛仙战甲
50754032;诛仙战甲
50754041;诛仙护腕
50754042;诛仙护腕
50754051;诛仙法履
50754052;诛仙法履
50754061;诛仙束带
50754062;诛仙束带
50754071;诛仙项链
50754072;诛仙项链
50754081;诛仙手镯
50754082;诛仙手镯
50754091;诛仙戒指
50754092;诛仙戒指
50754101;诛仙玉佩
50754102;诛仙玉佩
50765011;诛仙玄剑
50765012;诛仙玄剑
50765021;诛仙玉冠
50765022;诛仙玉冠
50765031;诛仙战甲
50765032;诛仙战甲
50765041;诛仙护腕
50765042;诛仙护腕
50765051;诛仙法履
50765052;诛仙法履
50765061;诛仙束带
50765062;诛仙束带
50765071;诛仙项链
50765072;诛仙项链
50765081;诛仙手镯
50765082;诛仙手镯
50765091;诛仙戒指
50765092;诛仙戒指
50765101;诛仙玉佩
50765102;诛仙玉佩
50821011;昆吾玄剑
50821012;昆吾玄剑
50821021;昆吾玉冠
50821022;昆吾玉冠
50821031;昆吾战甲
50821032;昆吾战甲
50821041;昆吾护腕
50821042;昆吾护腕
50821051;昆吾法履
50821052;昆吾法履
50821061;昆吾束带
50821062;昆吾束带
50821071;昆吾项链
50821072;昆吾项链
50821081;昆吾手镯
50821082;昆吾手镯
50821091;昆吾戒指
50821092;昆吾戒指
50821101;昆吾玉佩
50821102;昆吾玉佩
50831011;昆吾玄剑
50831012;昆吾玄剑
50831021;昆吾玉冠
50831022;昆吾玉冠
50831031;昆吾战甲
50831032;昆吾战甲
50831041;昆吾护腕
50831042;昆吾护腕
50831051;昆吾法履
50831052;昆吾法履
50831061;昆吾束带
50831062;昆吾束带
50831071;昆吾项链
50831072;昆吾项链
50831081;昆吾手镯
50831082;昆吾手镯
50831091;昆吾戒指
50831092;昆吾戒指
50831101;昆吾玉佩
50831102;昆吾玉佩
50832011;昆吾玄剑
50832012;昆吾玄剑
50832021;昆吾玉冠
50832022;昆吾玉冠
50832031;昆吾战甲
50832032;昆吾战甲
50832041;昆吾护腕
50832042;昆吾护腕
50832051;昆吾法履
50832052;昆吾法履
50832061;昆吾束带
50832062;昆吾束带
50832071;昆吾项链
50832072;昆吾项链
50832081;昆吾手镯
50832082;昆吾手镯
50832091;昆吾戒指
50832092;昆吾戒指
50832101;昆吾玉佩
50832102;昆吾玉佩
50842011;昆吾玄剑
50842012;昆吾玄剑
50842021;昆吾玉冠
50842022;昆吾玉冠
50842031;昆吾战甲
50842032;昆吾战甲
50842041;昆吾护腕
50842042;昆吾护腕
50842051;昆吾法履
50842052;昆吾法履
50842061;昆吾束带
50842062;昆吾束带
50842071;昆吾项链
50842072;昆吾项链
50842081;昆吾手镯
50842082;昆吾手镯
50842091;昆吾戒指
50842092;昆吾戒指
50842101;昆吾玉佩
50842102;昆吾玉佩
50843011;昆吾玄剑
50843012;昆吾玄剑
50843021;昆吾玉冠
50843022;昆吾玉冠
50843031;昆吾战甲
50843032;昆吾战甲
50843041;昆吾护腕
50843042;昆吾护腕
50843051;昆吾法履
50843052;昆吾法履
50843061;昆吾束带
50843062;昆吾束带
50843071;昆吾项链
50843072;昆吾项链
50843081;昆吾手镯
50843082;昆吾手镯
50843091;昆吾戒指
50843092;昆吾戒指
50843101;昆吾玉佩
50843102;昆吾玉佩
50852011;昆吾玄剑
50852012;昆吾玄剑
50852021;昆吾玉冠
50852022;昆吾玉冠
50852031;昆吾战甲
50852032;昆吾战甲
50852041;昆吾护腕
50852042;昆吾护腕
50852051;昆吾法履
50852052;昆吾法履
50852061;昆吾束带
50852062;昆吾束带
50852071;昆吾项链
50852072;昆吾项链
50852081;昆吾手镯
50852082;昆吾手镯
50852091;昆吾戒指
50852092;昆吾戒指
50852101;昆吾玉佩
50852102;昆吾玉佩
50853011;昆吾玄剑
50853012;昆吾玄剑
50853021;昆吾玉冠
50853022;昆吾玉冠
50853031;昆吾战甲
50853032;昆吾战甲
50853041;昆吾护腕
50853042;昆吾护腕
50853051;昆吾法履
50853052;昆吾法履
50853061;昆吾束带
50853062;昆吾束带
50853071;昆吾项链
50853072;昆吾项链
50853081;昆吾手镯
50853082;昆吾手镯
50853091;昆吾戒指
50853092;昆吾戒指
50853101;昆吾玉佩
50853102;昆吾玉佩
50854011;昆吾玄剑
50854012;昆吾玄剑
50854021;昆吾玉冠
50854022;昆吾玉冠
50854031;昆吾战甲
50854032;昆吾战甲
50854041;昆吾护腕
50854042;昆吾护腕
50854051;昆吾法履
50854052;昆吾法履
50854061;昆吾束带
50854062;昆吾束带
50854071;昆吾项链
50854072;昆吾项链
50854081;昆吾手镯
50854082;昆吾手镯
50854091;昆吾戒指
50854092;昆吾戒指
50854101;昆吾玉佩
50854102;昆吾玉佩
50865011;昆吾玄剑
50865012;昆吾玄剑
50865021;昆吾玉冠
50865022;昆吾玉冠
50865031;昆吾战甲
50865032;昆吾战甲
50865041;昆吾护腕
50865042;昆吾护腕
50865051;昆吾法履
50865052;昆吾法履
50865061;昆吾束带
50865062;昆吾束带
50865071;昆吾项链
50865072;昆吾项链
50865081;昆吾手镯
50865082;昆吾手镯
50865091;昆吾戒指
50865092;昆吾戒指
50865101;昆吾玉佩
50865102;昆吾玉佩
50921011;轩辕昊天剑
50921012;轩辕昊天剑
50921021;轩辕玉冠
50921022;轩辕玉冠
50921031;轩辕战甲
50921032;轩辕战甲
50921041;轩辕护腕
50921042;轩辕护腕
50921051;轩辕法履
50921052;轩辕法履
50921061;轩辕束带
50921062;轩辕束带
50921071;轩辕项链
50921072;轩辕项链
50921081;轩辕手镯
50921082;轩辕手镯
50921091;轩辕戒指
50921092;轩辕戒指
50921101;轩辕玉佩
50921102;轩辕玉佩
50931011;轩辕昊天剑
50931012;轩辕昊天剑
50931021;轩辕玉冠
50931022;轩辕玉冠
50931031;轩辕战甲
50931032;轩辕战甲
50931041;轩辕护腕
50931042;轩辕护腕
50931051;轩辕法履
50931052;轩辕法履
50931061;轩辕束带
50931062;轩辕束带
50931071;轩辕项链
50931072;轩辕项链
50931081;轩辕手镯
50931082;轩辕手镯
50931091;轩辕戒指
50931092;轩辕戒指
50931101;轩辕玉佩
50931102;轩辕玉佩
50932011;轩辕昊天剑
50932012;轩辕昊天剑
50932021;轩辕玉冠
50932022;轩辕玉冠
50932031;轩辕战甲
50932032;轩辕战甲
50932041;轩辕护腕
50932042;轩辕护腕
50932051;轩辕法履
50932052;轩辕法履
50932061;轩辕束带
50932062;轩辕束带
50932071;轩辕项链
50932072;轩辕项链
50932081;轩辕手镯
50932082;轩辕手镯
50932091;轩辕戒指
50932092;轩辕戒指
50932101;轩辕玉佩
50932102;轩辕玉佩
50942011;轩辕昊天剑
50942012;轩辕昊天剑
50942021;轩辕玉冠
50942022;轩辕玉冠
50942031;轩辕战甲
50942032;轩辕战甲
50942041;轩辕护腕
50942042;轩辕护腕
50942051;轩辕法履
50942052;轩辕法履
50942061;轩辕束带
50942062;轩辕束带
50942071;轩辕项链
50942072;轩辕项链
50942081;轩辕手镯
50942082;轩辕手镯
50942091;轩辕戒指
50942092;轩辕戒指
50942101;轩辕玉佩
50942102;轩辕玉佩
50943011;轩辕昊天剑
50943012;轩辕昊天剑
50943021;轩辕玉冠
50943022;轩辕玉冠
50943031;轩辕战甲
50943032;轩辕战甲
50943041;轩辕护腕
50943042;轩辕护腕
50943051;轩辕法履
50943052;轩辕法履
50943061;轩辕束带
50943062;轩辕束带
50943071;轩辕项链
50943072;轩辕项链
50943081;轩辕手镯
50943082;轩辕手镯
50943091;轩辕戒指
50943092;轩辕戒指
50943101;轩辕玉佩
50943102;轩辕玉佩
50952011;轩辕昊天剑
50952012;轩辕昊天剑
50952021;轩辕玉冠
50952022;轩辕玉冠
50952031;轩辕战甲
50952032;轩辕战甲
50952041;轩辕护腕
50952042;轩辕护腕
50952051;轩辕法履
50952052;轩辕法履
50952061;轩辕束带
50952062;轩辕束带
50952071;轩辕项链
50952072;轩辕项链
50952081;轩辕手镯
50952082;轩辕手镯
50952091;轩辕戒指
50952092;轩辕戒指
50952101;轩辕玉佩
50952102;轩辕玉佩
50953011;轩辕昊天剑
50953012;轩辕昊天剑
50953021;轩辕玉冠
50953022;轩辕玉冠
50953031;轩辕战甲
50953032;轩辕战甲
50953041;轩辕护腕
50953042;轩辕护腕
50953051;轩辕法履
50953052;轩辕法履
50953061;轩辕束带
50953062;轩辕束带
50953071;轩辕项链
50953072;轩辕项链
50953081;轩辕手镯
50953082;轩辕手镯
50953091;轩辕戒指
50953092;轩辕戒指
50953101;轩辕玉佩
50953102;轩辕玉佩
50954011;轩辕昊天剑
50954012;轩辕昊天剑
50954021;轩辕玉冠
50954022;轩辕玉冠
50954031;轩辕战甲
50954032;轩辕战甲
50954041;轩辕护腕
50954042;轩辕护腕
50954051;轩辕法履
50954052;轩辕法履
50954061;轩辕束带
50954062;轩辕束带
50954071;轩辕项链
50954072;轩辕项链
50954081;轩辕手镯
50954082;轩辕手镯
50954091;轩辕戒指
50954092;轩辕戒指
50954101;轩辕玉佩
50954102;轩辕玉佩
50965011;轩辕昊天剑
50965012;轩辕昊天剑
50965021;轩辕玉冠
50965022;轩辕玉冠
50965031;轩辕战甲
50965032;轩辕战甲
50965041;轩辕护腕
50965042;轩辕护腕
50965051;轩辕法履
50965052;轩辕法履
50965061;轩辕束带
50965062;轩辕束带
50965071;轩辕项链
50965072;轩辕项链
50965081;轩辕手镯
50965082;轩辕手镯
50965091;轩辕戒指
50965092;轩辕戒指
50965101;轩辕玉佩
50965102;轩辕玉佩
51021011;盘古赤天剑
51021012;盘古赤天剑
51021021;盘古玉冠
51021022;盘古玉冠
51021031;盘古战甲
51021032;盘古战甲
51021041;盘古护腕
51021042;盘古护腕
51021051;盘古法履
51021052;盘古法履
51021061;盘古束带
51021062;盘古束带
51021071;盘古项链
51021072;盘古项链
51021081;盘古手镯
51021082;盘古手镯
51021091;盘古戒指
51021092;盘古戒指
51021101;盘古玉佩
51021102;盘古玉佩
51031011;盘古赤天剑
51031012;盘古赤天剑
51031021;盘古玉冠
51031022;盘古玉冠
51031031;盘古战甲
51031032;盘古战甲
51031041;盘古护腕
51031042;盘古护腕
51031051;盘古法履
51031052;盘古法履
51031061;盘古束带
51031062;盘古束带
51031071;盘古项链
51031072;盘古项链
51031081;盘古手镯
51031082;盘古手镯
51031091;盘古戒指
51031092;盘古戒指
51031101;盘古玉佩
51031102;盘古玉佩
51032011;盘古赤天剑
51032012;盘古赤天剑
51032021;盘古玉冠
51032022;盘古玉冠
51032031;盘古战甲
51032032;盘古战甲
51032041;盘古护腕
51032042;盘古护腕
51032051;盘古法履
51032052;盘古法履
51032061;盘古束带
51032062;盘古束带
51032071;盘古项链
51032072;盘古项链
51032081;盘古手镯
51032082;盘古手镯
51032091;盘古戒指
51032092;盘古戒指
51032101;盘古玉佩
51032102;盘古玉佩
51042011;盘古赤天剑
51042012;盘古赤天剑
51042021;盘古玉冠
51042022;盘古玉冠
51042031;盘古战甲
51042032;盘古战甲
51042041;盘古护腕
51042042;盘古护腕
51042051;盘古法履
51042052;盘古法履
51042061;盘古束带
51042062;盘古束带
51042071;盘古项链
51042072;盘古项链
51042081;盘古手镯
51042082;盘古手镯
51042091;盘古戒指
51042092;盘古戒指
51042101;盘古玉佩
51042102;盘古玉佩
51043011;盘古赤天剑
51043012;盘古赤天剑
51043021;盘古玉冠
51043022;盘古玉冠
51043031;盘古战甲
51043032;盘古战甲
51043041;盘古护腕
51043042;盘古护腕
51043051;盘古法履
51043052;盘古法履
51043061;盘古束带
51043062;盘古束带
51043071;盘古项链
51043072;盘古项链
51043081;盘古手镯
51043082;盘古手镯
51043091;盘古戒指
51043092;盘古戒指
51043101;盘古玉佩
51043102;盘古玉佩
51052011;盘古赤天剑
51052012;盘古赤天剑
51052021;盘古玉冠
51052022;盘古玉冠
51052031;盘古战甲
51052032;盘古战甲
51052041;盘古护腕
51052042;盘古护腕
51052051;盘古法履
51052052;盘古法履
51052061;盘古束带
51052062;盘古束带
51052071;盘古项链
51052072;盘古项链
51052081;盘古手镯
51052082;盘古手镯
51052091;盘古戒指
51052092;盘古戒指
51052101;盘古玉佩
51052102;盘古玉佩
51053011;盘古赤天剑
51053012;盘古赤天剑
51053021;盘古玉冠
51053022;盘古玉冠
51053031;盘古战甲
51053032;盘古战甲
51053041;盘古护腕
51053042;盘古护腕
51053051;盘古法履
51053052;盘古法履
51053061;盘古束带
51053062;盘古束带
51053071;盘古项链
51053072;盘古项链
51053081;盘古手镯
51053082;盘古手镯
51053091;盘古戒指
51053092;盘古戒指
51053101;盘古玉佩
51053102;盘古玉佩
51054011;盘古赤天剑
51054012;盘古赤天剑
51054021;盘古玉冠
51054022;盘古玉冠
51054031;盘古战甲
51054032;盘古战甲
51054041;盘古护腕
51054042;盘古护腕
51054051;盘古法履
51054052;盘古法履
51054061;盘古束带
51054062;盘古束带
51054071;盘古项链
51054072;盘古项链
51054081;盘古手镯
51054082;盘古手镯
51054091;盘古戒指
51054092;盘古戒指
51054101;盘古玉佩
51054102;盘古玉佩
51065011;盘古赤天剑
51065012;盘古赤天剑
51065021;盘古玉冠
51065022;盘古玉冠
51065031;盘古战甲
51065032;盘古战甲
51065041;盘古护腕
51065042;盘古护腕
51065051;盘古法履
51065052;盘古法履
51065061;盘古束带
51065062;盘古束带
51065071;盘古项链
51065072;盘古项链
51065081;盘古手镯
51065082;盘古手镯
51065091;盘古戒指
51065092;盘古戒指
51065101;盘古玉佩
51065102;盘古玉佩
51121011;乾坤幽天剑
51121012;乾坤幽天剑
51121021;乾坤玉冠
51121022;乾坤玉冠
51121031;乾坤战甲
51121032;乾坤战甲
51121041;乾坤护腕
51121042;乾坤护腕
51121051;乾坤法履
51121052;乾坤法履
51121061;乾坤束带
51121062;乾坤束带
51121071;乾坤项链
51121072;乾坤项链
51121081;乾坤手镯
51121082;乾坤手镯
51121091;乾坤戒指
51121092;乾坤戒指
51121101;乾坤玉佩
51121102;乾坤玉佩
51131011;乾坤幽天剑
51131012;乾坤幽天剑
51131021;乾坤玉冠
51131022;乾坤玉冠
51131031;乾坤战甲
51131032;乾坤战甲
51131041;乾坤护腕
51131042;乾坤护腕
51131051;乾坤法履
51131052;乾坤法履
51131061;乾坤束带
51131062;乾坤束带
51131071;乾坤项链
51131072;乾坤项链
51131081;乾坤手镯
51131082;乾坤手镯
51131091;乾坤戒指
51131092;乾坤戒指
51131101;乾坤玉佩
51131102;乾坤玉佩
51132011;乾坤幽天剑
51132012;乾坤幽天剑
51132021;乾坤玉冠
51132022;乾坤玉冠
51132031;乾坤战甲
51132032;乾坤战甲
51132041;乾坤护腕
51132042;乾坤护腕
51132051;乾坤法履
51132052;乾坤法履
51132061;乾坤束带
51132062;乾坤束带
51132071;乾坤项链
51132072;乾坤项链
51132081;乾坤手镯
51132082;乾坤手镯
51132091;乾坤戒指
51132092;乾坤戒指
51132101;乾坤玉佩
51132102;乾坤玉佩
51142011;乾坤幽天剑
51142012;乾坤幽天剑
51142021;乾坤玉冠
51142022;乾坤玉冠
51142031;乾坤战甲
51142032;乾坤战甲
51142041;乾坤护腕
51142042;乾坤护腕
51142051;乾坤法履
51142052;乾坤法履
51142061;乾坤束带
51142062;乾坤束带
51142071;乾坤项链
51142072;乾坤项链
51142081;乾坤手镯
51142082;乾坤手镯
51142091;乾坤戒指
51142092;乾坤戒指
51142101;乾坤玉佩
51142102;乾坤玉佩
51143011;乾坤幽天剑
51143012;乾坤幽天剑
51143021;乾坤玉冠
51143022;乾坤玉冠
51143031;乾坤战甲
51143032;乾坤战甲
51143041;乾坤护腕
51143042;乾坤护腕
51143051;乾坤法履
51143052;乾坤法履
51143061;乾坤束带
51143062;乾坤束带
51143071;乾坤项链
51143072;乾坤项链
51143081;乾坤手镯
51143082;乾坤手镯
51143091;乾坤戒指
51143092;乾坤戒指
51143101;乾坤玉佩
51143102;乾坤玉佩
51152011;乾坤幽天剑
51152012;乾坤幽天剑
51152021;乾坤玉冠
51152022;乾坤玉冠
51152031;乾坤战甲
51152032;乾坤战甲
51152041;乾坤护腕
51152042;乾坤护腕
51152051;乾坤法履
51152052;乾坤法履
51152061;乾坤束带
51152062;乾坤束带
51152071;乾坤项链
51152072;乾坤项链
51152081;乾坤手镯
51152082;乾坤手镯
51152091;乾坤戒指
51152092;乾坤戒指
51152101;乾坤玉佩
51152102;乾坤玉佩
51153011;乾坤幽天剑
51153012;乾坤幽天剑
51153021;乾坤玉冠
51153022;乾坤玉冠
51153031;乾坤战甲
51153032;乾坤战甲
51153041;乾坤护腕
51153042;乾坤护腕
51153051;乾坤法履
51153052;乾坤法履
51153061;乾坤束带
51153062;乾坤束带
51153071;乾坤项链
51153072;乾坤项链
51153081;乾坤手镯
51153082;乾坤手镯
51153091;乾坤戒指
51153092;乾坤戒指
51153101;乾坤玉佩
51153102;乾坤玉佩
51154011;乾坤幽天剑
51154012;乾坤幽天剑
51154021;乾坤玉冠
51154022;乾坤玉冠
51154031;乾坤战甲
51154032;乾坤战甲
51154041;乾坤护腕
51154042;乾坤护腕
51154051;乾坤法履
51154052;乾坤法履
51154061;乾坤束带
51154062;乾坤束带
51154071;乾坤项链
51154072;乾坤项链
51154081;乾坤手镯
51154082;乾坤手镯
51154091;乾坤戒指
51154092;乾坤戒指
51154101;乾坤玉佩
51154102;乾坤玉佩
51165011;乾坤幽天剑
51165012;乾坤幽天剑
51165021;乾坤玉冠
51165022;乾坤玉冠
51165031;乾坤战甲
51165032;乾坤战甲
51165041;乾坤护腕
51165042;乾坤护腕
51165051;乾坤法履
51165052;乾坤法履
51165061;乾坤束带
51165062;乾坤束带
51165071;乾坤项链
51165072;乾坤项链
51165081;乾坤手镯
51165082;乾坤手镯
51165091;乾坤戒指
51165092;乾坤戒指
51165101;乾坤玉佩
51165102;乾坤玉佩
51221011;混沌玄天剑
51221012;混沌玄天剑
51221021;混沌玉冠
51221022;混沌玉冠
51221031;混沌战甲
51221032;混沌战甲
51221041;混沌护腕
51221042;混沌护腕
51221051;混沌法履
51221052;混沌法履
51221061;混沌束带
51221062;混沌束带
51221071;混沌项链
51221072;混沌项链
51221081;混沌手镯
51221082;混沌手镯
51221091;混沌戒指
51221092;混沌戒指
51221101;混沌玉佩
51221102;混沌玉佩
51231011;混沌玄天剑
51231012;混沌玄天剑
51231021;混沌玉冠
51231022;混沌玉冠
51231031;混沌战甲
51231032;混沌战甲
51231041;混沌护腕
51231042;混沌护腕
51231051;混沌法履
51231052;混沌法履
51231061;混沌束带
51231062;混沌束带
51231071;混沌项链
51231072;混沌项链
51231081;混沌手镯
51231082;混沌手镯
51231091;混沌戒指
51231092;混沌戒指
51231101;混沌玉佩
51231102;混沌玉佩
51232011;混沌玄天剑
51232012;混沌玄天剑
51232021;混沌玉冠
51232022;混沌玉冠
51232031;混沌战甲
51232032;混沌战甲
51232041;混沌护腕
51232042;混沌护腕
51232051;混沌法履
51232052;混沌法履
51232061;混沌束带
51232062;混沌束带
51232071;混沌项链
51232072;混沌项链
51232081;混沌手镯
51232082;混沌手镯
51232091;混沌戒指
51232092;混沌戒指
51232101;混沌玉佩
51232102;混沌玉佩
51242011;混沌玄天剑
51242012;混沌玄天剑
51242021;混沌玉冠
51242022;混沌玉冠
51242031;混沌战甲
51242032;混沌战甲
51242041;混沌护腕
51242042;混沌护腕
51242051;混沌法履
51242052;混沌法履
51242061;混沌束带
51242062;混沌束带
51242071;混沌项链
51242072;混沌项链
51242081;混沌手镯
51242082;混沌手镯
51242091;混沌戒指
51242092;混沌戒指
51242101;混沌玉佩
51242102;混沌玉佩
51243011;混沌玄天剑
51243012;混沌玄天剑
51243021;混沌玉冠
51243022;混沌玉冠
51243031;混沌战甲
51243032;混沌战甲
51243041;混沌护腕
51243042;混沌护腕
51243051;混沌法履
51243052;混沌法履
51243061;混沌束带
51243062;混沌束带
51243071;混沌项链
51243072;混沌项链
51243081;混沌手镯
51243082;混沌手镯
51243091;混沌戒指
51243092;混沌戒指
51243101;混沌玉佩
51243102;混沌玉佩
51252011;混沌玄天剑
51252012;混沌玄天剑
51252021;混沌玉冠
51252022;混沌玉冠
51252031;混沌战甲
51252032;混沌战甲
51252041;混沌护腕
51252042;混沌护腕
51252051;混沌法履
51252052;混沌法履
51252061;混沌束带
51252062;混沌束带
51252071;混沌项链
51252072;混沌项链
51252081;混沌手镯
51252082;混沌手镯
51252091;混沌戒指
51252092;混沌戒指
51252101;混沌玉佩
51252102;混沌玉佩
51253011;混沌玄天剑
51253012;混沌玄天剑
51253021;混沌玉冠
51253022;混沌玉冠
51253031;混沌战甲
51253032;混沌战甲
51253041;混沌护腕
51253042;混沌护腕
51253051;混沌法履
51253052;混沌法履
51253061;混沌束带
51253062;混沌束带
51253071;混沌项链
51253072;混沌项链
51253081;混沌手镯
51253082;混沌手镯
51253091;混沌戒指
51253092;混沌戒指
51253101;混沌玉佩
51253102;混沌玉佩
51254011;混沌玄天剑
51254012;混沌玄天剑
51254021;混沌玉冠
51254022;混沌玉冠
51254031;混沌战甲
51254032;混沌战甲
51254041;混沌护腕
51254042;混沌护腕
51254051;混沌法履
51254052;混沌法履
51254061;混沌束带
51254062;混沌束带
51254071;混沌项链
51254072;混沌项链
51254081;混沌手镯
51254082;混沌手镯
51254091;混沌戒指
51254092;混沌戒指
51254101;混沌玉佩
51254102;混沌玉佩
51265011;混沌玄天剑
51265012;混沌玄天剑
51265021;混沌玉冠
51265022;混沌玉冠
51265031;混沌战甲
51265032;混沌战甲
51265041;混沌护腕
51265042;混沌护腕
51265051;混沌法履
51265052;混沌法履
51265061;混沌束带
51265062;混沌束带
51265071;混沌项链
51265072;混沌项链
51265081;混沌手镯
51265082;混沌手镯
51265091;混沌戒指
51265092;混沌戒指
51265101;混沌玉佩
51265102;混沌玉佩
51321011;灭世钧天剑
51321012;灭世钧天剑
51321021;灭世玉冠
51321022;灭世玉冠
51321031;灭世战甲
51321032;灭世战甲
51321041;灭世护腕
51321042;灭世护腕
51321051;灭世法履
51321052;灭世法履
51321061;灭世束带
51321062;灭世束带
51321071;灭世项链
51321072;灭世项链
51321081;灭世手镯
51321082;灭世手镯
51321091;灭世戒指
51321092;灭世戒指
51321101;灭世玉佩
51321102;灭世玉佩
51331011;灭世钧天剑
51331012;灭世钧天剑
51331021;灭世玉冠
51331022;灭世玉冠
51331031;灭世战甲
51331032;灭世战甲
51331041;灭世护腕
51331042;灭世护腕
51331051;灭世法履
51331052;灭世法履
51331061;灭世束带
51331062;灭世束带
51331071;灭世项链
51331072;灭世项链
51331081;灭世手镯
51331082;灭世手镯
51331091;灭世戒指
51331092;灭世戒指
51331101;灭世玉佩
51331102;灭世玉佩
51332011;灭世钧天剑
51332012;灭世钧天剑
51332021;灭世玉冠
51332022;灭世玉冠
51332031;灭世战甲
51332032;灭世战甲
51332041;灭世护腕
51332042;灭世护腕
51332051;灭世法履
51332052;灭世法履
51332061;灭世束带
51332062;灭世束带
51332071;灭世项链
51332072;灭世项链
51332081;灭世手镯
51332082;灭世手镯
51332091;灭世戒指
51332092;灭世戒指
51332101;灭世玉佩
51332102;灭世玉佩
51342011;灭世钧天剑
51342012;灭世钧天剑
51342021;灭世玉冠
51342022;灭世玉冠
51342031;灭世战甲
51342032;灭世战甲
51342041;灭世护腕
51342042;灭世护腕
51342051;灭世法履
51342052;灭世法履
51342061;灭世束带
51342062;灭世束带
51342071;灭世项链
51342072;灭世项链
51342081;灭世手镯
51342082;灭世手镯
51342091;灭世戒指
51342092;灭世戒指
51342101;灭世玉佩
51342102;灭世玉佩
51343011;灭世钧天剑
51343012;灭世钧天剑
51343021;灭世玉冠
51343022;灭世玉冠
51343031;灭世战甲
51343032;灭世战甲
51343041;灭世护腕
51343042;灭世护腕
51343051;灭世法履
51343052;灭世法履
51343061;灭世束带
51343062;灭世束带
51343071;灭世项链
51343072;灭世项链
51343081;灭世手镯
51343082;灭世手镯
51343091;灭世戒指
51343092;灭世戒指
51343101;灭世玉佩
51343102;灭世玉佩
51352011;灭世钧天剑
51352012;灭世钧天剑
51352021;灭世玉冠
51352022;灭世玉冠
51352031;灭世战甲
51352032;灭世战甲
51352041;灭世护腕
51352042;灭世护腕
51352051;灭世法履
51352052;灭世法履
51352061;灭世束带
51352062;灭世束带
51352071;灭世项链
51352072;灭世项链
51352081;灭世手镯
51352082;灭世手镯
51352091;灭世戒指
51352092;灭世戒指
51352101;灭世玉佩
51352102;灭世玉佩
51353011;灭世钧天剑
51353012;灭世钧天剑
51353021;灭世玉冠
51353022;灭世玉冠
51353031;灭世战甲
51353032;灭世战甲
51353041;灭世护腕
51353042;灭世护腕
51353051;灭世法履
51353052;灭世法履
51353061;灭世束带
51353062;灭世束带
51353071;灭世项链
51353072;灭世项链
51353081;灭世手镯
51353082;灭世手镯
51353091;灭世戒指
51353092;灭世戒指
51353101;灭世玉佩
51353102;灭世玉佩
51354011;灭世钧天剑
51354012;灭世钧天剑
51354021;灭世玉冠
51354022;灭世玉冠
51354031;灭世战甲
51354032;灭世战甲
51354041;灭世护腕
51354042;灭世护腕
51354051;灭世法履
51354052;灭世法履
51354061;灭世束带
51354062;灭世束带
51354071;灭世项链
51354072;灭世项链
51354081;灭世手镯
51354082;灭世手镯
51354091;灭世戒指
51354092;灭世戒指
51354101;灭世玉佩
51354102;灭世玉佩
51365011;灭世钧天剑
51365012;灭世钧天剑
51365021;灭世玉冠
51365022;灭世玉冠
51365031;灭世战甲
51365032;灭世战甲
51365041;灭世护腕
51365042;灭世护腕
51365051;灭世法履
51365052;灭世法履
51365061;灭世束带
51365062;灭世束带
51365071;灭世项链
51365072;灭世项链
51365081;灭世手镯
51365082;灭世手镯
51365091;灭世戒指
51365092;灭世戒指
51365101;灭世玉佩
51365102;灭世玉佩
10120001;强化石
10130001;灵品强化石
10140001;仙品强化石
10230001;洗炼石
10240001;极品洗炼石
10250001;完美洗炼石
10340001;法宝密钥
10420001;四时极石
10430001;日月精华
10440001;物华天宝
10450001;太初梵玉
10530001;灵宠培养丹
10640001;灵宠进阶丹
10731001;风吼阵
10731002;天阙阵
10731003;金光阵
10731004;寒冰阵
10732001;风吼阵碎片
10732002;天阙阵碎片
10732003;金光阵碎片
10732004;寒冰阵碎片
10741001;四象聚灵阵
10741002;北斗七星阵
10741003;真武七截阵
10741004;九曲黄河阵
10742001;四象聚灵阵碎
10742002;北斗七星阵碎
10742003;真武七截阵碎
10742004;九曲黄河阵碎
10750001;混沌圣子
10750002;荒古魔猿
10750003;太虚祖龙
10751001;血海轮回阵
10751002;都天神煞阵
10751003;周天星斗阵
10751004;两仪微尘阵
10752001;血海轮回阵碎
10752002;都天神煞阵碎
10752003;周天星斗阵碎
10752004;两仪微尘阵碎
10820001;悟性丹
10830001;潜能丹
10840001;根骨丹
10850001;灵体丹
10930001;仙器培养石
11040001;仙器进阶石
11131001;归流阵
11131002;落魂阵
11131003;锁云阵
11131004;天绝阵
11132001;归流阵碎片
11132002;落魂阵碎片
11132003;锁云阵碎片
11132004;天绝阵碎片
11141001;太极八卦阵
11141002;天罡北斗阵
11141003;九天伏魔阵
11141004;大轮明王阵
11142001;太极八卦阵碎
11142002;天罡北斗阵碎
11142003;九天伏魔阵碎
11142004;大轮明王阵碎
11150001;御风犬神
11150002;瑶池墨鳞
11150003;耀世璃龙
11151001;须弥混沌阵
11151002;混元无极阵
11151003;无量衍天阵
11151004;六道轮回阵
11152001;须弥混沌阵碎
11152002;混元无极阵碎
11152003;无量衍天阵碎
11152004;六道轮回阵碎
11220001;器灵·锐
11230001;器灵·御
11240001;器灵·攻
11250001;器灵·迅
11330001;斩风碎片
11330002;焚隐碎片
11330003;太阿碎片
11330004;承影碎片
11340001;赤霄吟碎片
11340002;月神舞碎片
11340003;龙渊啸碎片
11340004;墨惊邪碎片
11350001;十方俱灭碎片
11350002;冰魄灵霜碎片
11350003;炽焱焚星碎片
11350004;天道雷霆碎片
11430001;神兵升级石
11530001;斩风
11530002;焚隐
11530003;太阿
11530004;承影
11540001;赤霄吟
11540002;月神舞
11540003;龙渊啸
11540004;墨惊邪
11550001;十方俱灭
11550002;冰魄灵霜
11550003;炽焱焚星
11550004;天道雷霆
11620001;刑天兵魂
11630001;幽天兵魂
11640001;昊天兵魂
11650001;钧天兵魂
11750001;神兵秘谱
11830001;白华羽碎片
11830002;紫枭翅碎片
11830003;玲珑蝶羽碎片
11830004;琉璃玄翼碎片
11840001;紫寰飞翎碎片
11840002;玄冥凌羽碎片
11840003;焚魔圣翼碎片
11840004;炽炎凤翎碎片
11850001;太初灵罗碎片
11850002;永夜幻霓碎片
11850003;浮屠堕天碎片
11850004;涅槃天凰碎片
11930001;仙翼升级石
12030001;白华羽
12030002;紫枭翅
12030003;玲珑蝶羽
12030004;琉璃玄翼
12040001;紫寰飞翎
12040002;玄冥凌羽
12040003;焚魔圣翼
12040004;炽炎凤翎
12050001;太初灵罗羽
12050002;永夜幻霓翅
12050003;浮屠堕天翼
12050004;涅槃天凰翅
12120001;朱雀羽魂
12130001;毕方羽魂
12140001;鲲鹏羽魂
12150001;红鸾羽魂
12250001;幻翼玄录
12330001;紫魅幻影碎片
12330002;黄金圣甲碎片
12330003;流光韶华碎片
12330004;时装碎片4
12340001;优雅管家碎片
12340002;热血校园碎片
12340003;青春偶像碎片
12340004;金属摇滚碎片
12350001;异域舞者碎片
12350002;甜心玩偶碎片
12350003;樱花恋人碎片
12350004;机械之心碎片
12430001;时装升级石
12530001;紫魅幻影
12530002;黄金圣甲
12530003;流光韶华
12530004;珍品4阶时装
12540001;优雅管家
12540002;热血校园
12540003;青春偶像
12540004;金属摇滚
12550001;异域舞者
12550002;甜心玩偶
12550003;樱花恋人
12550004;机械之心
12620001;金碧衣魂
12630001;五彩衣魂
12640001;辉煌衣魂
12650001;霓裳衣魂
12750001;天衣宝鉴
12850001;心灵原石
12850002;空间原石
12850003;时间原石
12850004;力量原石
12850005;灵魂原石
12850006;现实原石
12950001;1阶神装
12950002;2阶神装
12950003;3阶神装
12950004;4阶神装
12950005;5阶神装
12950006;6阶神装
12950007;7阶神装
12950008;8阶神装
12950009;9阶神装
12950010;10阶神装
13030001;BOSS精魄
13050001;神魂玉
13050002;天尊圣印
13130001;珍品法阵碎片
13130002;珍品法阵碎片
13130003;珍品神兵碎片
13130004;珍品仙翼碎片
13130005;珍品时装碎片
13130006;珍品天珠碎片
13140001;极品法阵碎片
13140002;极品法阵碎片
13140003;极品神兵碎片
13140004;极品仙翼碎片
13140005;极品时装碎片
13140006;极品天珠碎片
13150001;绝品法阵碎片
13150002;绝品法阵碎片
13150003;绝品神兵碎片
13150004;绝品仙翼碎片
13150005;绝品时装碎片
13150006;绝品天珠碎片
13240001;黄级转生丹
13250001;神源石
13250002;招财猫
13250003;战力护符
13250004;无限手套
13250005;玄级转生丹
13250006;地级转生丹
13250007;天级转生丹
13250008;符晶
13250009;4阶打造石
13250010;5阶打造石
13250011;6阶打造石
13250012;7阶打造石
13250013;8阶打造石
13250014;9阶打造石
13250015;10阶打造石
13250016;11阶打造石
13250017;12阶打造石
13250018;13阶打造石
13350001;戒灵玄晶
13350002;玉灵玄晶
13450001;戒魂星石
13450002;玉魂星石
13540001;装备密钥
13540002;符文密钥
13550001;巅峰密钥
13550002;至尊密钥
13640001;珍宝钥匙
13640002;体力丹
13720002;随机蓝色符文
13720003;随机道具
13730001;极品装备
13730002;随机紫色符文
13730003;随机道具
13730005;极品装备
13730006;极品装备
13730007;极品装备
13730008;极品装备
13730009;极品装备
13730010;极品装备
13730011;极品装备
13730012;极品装备
13730013;极品装备
13730014;极品装备
13730015;极品装备
13730016;极品装备
13730017;极品装备
13730018;极品装备
13730019;极品装备
13730020;极品装备
13730021;极品装备
13730022;极品装备
13730023;极品装备
13730024;极品装备
13730025;极品装备
13730026;极品装备
13730027;极品装备
13730028;极品装备
13730029;极品装备
13730030;极品装备
13740001;极品装备
13740002;随机橙色符文
13740003;随机道具
13740004;随机道具
13740005;极品装备
13740006;极品装备
13740007;极品装备
13740008;极品装备
13740009;极品装备
13740010;极品装备
13740011;极品装备
13740012;极品装备
13740013;极品装备
13740014;极品装备
13740015;极品装备
13740016;极品装备
13740017;极品装备
13740018;极品装备
13740019;极品装备
13740020;极品装备
13740021;极品装备
13740022;极品装备
13740023;极品装备
13740024;极品装备
13740025;极品装备
13740026;极品装备
13740027;极品装备
13740028;极品装备
13740029;极品装备
13740030;极品装备
13740031;攻击丹
13740032;生命丹
13740033;防御丹
13740034;破防丹
13740035;命中丹
13740036;闪避丹
13740037;暴击丹
13740038;韧性丹
13750001;极品装备
13750003;随机道具
13840001;福盈门
13840002;八宝柜
13840003;长岁灯
13840004;如意屏
13840005;纳财瓶
13840006;星罗棋
13840007;锦绣花
13840008;山河图
13840009;富贵壁
13840010;风水山
13840011;转运亭
13840012;镇宅狮
13930001;护身符
13930002;丹药残渣
13940001;罗盘
13950001;罗盘
14030001;仙盟密卷
14030002;诛仙令
14130001;避尘珠碎片
14130002;定风珠碎片
14130003;沧海珠碎片
14130004;幻月珠碎片
14140001;苍穹灵珠碎片
14140002;幽冥灵珠碎片
14140003;七窍灵珠碎片
14140004;赤曜灵珠碎片
14150001;炽凤神珠碎片
14150002;轮转神珠碎片
14150003;虚弥神珠碎片
14150004;羲和神珠碎片
14230001;天珠升级石
14330001;避尘珠
14330002;定风珠
14330003;沧海珠
14330004;幻月珠
14340001;苍穹灵珠
14340002;幽冥灵珠
14340003;七窍灵珠
14340004;赤曜灵珠
14350001;炽凤神珠
14350002;轮转神珠
14350003;虚弥神珠
14350004;羲和神珠
14420001;琥珀珠魂
14430001;琉璃珠魂
14440001;玲珑珠魂
14450001;天命珠魂
14550001;天珠图鉴
14630001;铸魂石
14640001;极品铸魂石
14650001;绝品铸魂石
14730001;苍狼之魂
14730002;狂犀之魂
14740001;饕餮之魂
14740002;霸下之魂
14750001;白虎之魂
14750002;玄武之魂
14850001;SVIP3专属称号
14850002;SVIP6专属称号
14850003;SVIP9专属称号
14850004;SVIP12专属称
14850005;SVIP15专属称
14940001;改名卡
20130001;元宝宝箱
20140001;元宝宝箱
20140002;元宝宝箱
20140003;元宝宝箱
20140004;元宝宝箱
20140005;元宝宝箱
20230001;绑元宝箱
20320001;2万金币宝箱
20330001;25万金币宝箱
20330002;50万金币宝箱
20340001;金币宝箱
20340002;金币宝箱
20340003;金币宝箱
20340004;金币宝箱
20340005;金币宝箱
20430001;经验丹
20440001;中级经验丹
20450001;高级经验丹
20520001;1万真气宝箱
20530001;10万真气宝箱
20530002;20万真气宝箱
20540001;真气宝箱
20540002;真气宝箱
20540003;真气宝箱
20540004;真气宝箱
20540005;真气宝箱
20630001;初级VIP经验卡
20640001;中级VIP经验卡
20650001;高级VIP经验卡
20730003;单人BOSS券
20730004;多人BOSS券
20730005;金币副本券
20730006;真气副本券
20730007;仙器副本券
20730008;灵宠副本券
20730009;组队副本券
20730010;三界副本券
20830001;运力宝箱
20840001;运力宝箱
20850001;运力宝箱
20930001;药渣
20930002;灵气宝箱
20940001;灵气宝箱
20940002;灵气宝箱
21030001;富贵宝箱
21030002;富贵宝箱
21040001;富贵宝箱
21040002;富贵宝箱
21130001;风水宝箱
21130002;风水宝箱
21140001;风水宝箱
21140002;风水宝箱
21220001;5分钟加速卡
21230001;30分钟加速卡
21240001;2小时加速卡
21250001;8小时加速卡
21340003;3阶灵宠直升丹
21340004;4阶灵宠直升丹
21340005;5阶灵宠直升丹
21340006;6阶灵宠直升丹
21440003;3阶仙器直升石
21440004;4阶仙器直升石
21440005;5阶仙器直升石
21440006;6阶仙器直升石
30120002;后天法宝匣
30130001;卓越法宝匣
30130002;先天法宝匣
30140001;极限法宝匣
30140002;混沌法宝匣
30150001;传说法宝匣
30150002;鸿蒙法宝匣
30220001;2-4级仙石箱
30230001;3-5级仙石箱
30230002;4-6级仙石箱
30240001;5-7级仙石箱
30240002;6-8级仙石箱
30240003;7-9级仙石箱
30350001;多人BOSS宝箱
30350002;多人BOSS宝箱
30350003;多人BOSS宝箱
30350004;多人BOSS宝箱
30350005;多人BOSS宝箱
30350006;多人BOSS宝箱
30350007;多人BOSS宝箱
30350008;多人BOSS宝箱
30450001;最后一击宝箱
30450002;最后一击宝箱
30450003;最后一击宝箱
30450004;最后一击宝箱
30450005;最后一击宝箱
30450006;最后一击宝箱
30450007;最后一击宝箱
30450008;最后一击宝箱
30550001;悟道真人礼包
30550002;逍遥散仙礼包
30550003;空冥地仙礼包
30550004;羽化天仙礼包
30550005;九天玄仙礼包
30550006;罗天上仙礼包
30550007;大罗金仙礼包
30550008;不朽仙君礼包
30550009;无上仙王礼包
30550010;混沌仙尊礼包
30550011;造化仙帝礼包
30650001;0-3转金箱
30650002;0-3转银箱
30650003;0-3转铜箱
30650004;4-5转金箱
30650005;4-5转银箱
30650006;4-5转铜箱
30650007;6-7转金箱
30650008;6-7转银箱
30650009;6-7转铜箱
30650010;1转金箱
30650011;1转银箱
30650012;1转铜箱
30650013;2转金箱
30650014;2转银箱
30650015;2转铜箱
30650016;3转金箱
30650017;3转银箱
30650018;3转铜箱
30650019;4转金箱
30650020;4转银箱
30650021;4转铜箱
30650022;5转金箱
30650023;5转银箱
30650024;5转铜箱
30650025;6转金箱
30650026;6转银箱
30650027;6转铜箱
30650028;7转金箱
30650029;7转银箱
30650030;7转铜箱
30750001;最后一击宝箱
30750002;最后一击宝箱
30750003;最后一击宝箱
30750004;最后一击宝箱
30750005;最后一击宝箱
30750006;最后一击宝箱
30750007;最后一击宝箱
30750008;最后一击宝箱
30750009;最后一击宝箱
30750010;最后一击宝箱
30850001;三界活跃宝箱
30850002;三界活跃宝箱
30850003;三界活跃宝箱
30850004;三界活跃宝箱
30850005;三界活跃宝箱
30850006;三界活跃宝箱
30850007;三界活跃宝箱
30850008;三界活跃宝箱
30850009;三界活跃宝箱
30850010;三界活跃宝箱
30910001;1级仙石箱
30910002;2级仙石箱
30920003;3级仙石箱
30920004;4级仙石箱
30930005;5级仙石箱
30930006;6级仙石箱
30940007;7级仙石箱
30940008;8级仙石箱
30940009;9级仙石箱
30950010;10级仙石箱
30950011;11级仙石箱
30950012;12级仙石箱
30950013;13级仙石箱
30950014;14级仙石箱
30950015;15级仙石箱
30950016;16级仙石箱
30950017;17级仙石箱
30950018;18级仙石箱
30950019;19级仙石箱
30950020;20级仙石箱
31030001;珍品灵宠法阵
31030002;珍品仙器法阵
31030003;珍品神兵宝箱
31030004;珍品仙翼宝箱
31030005;珍品时装宝箱
31030006;珍品天珠宝箱
31030007;外显礼盒
31040001;组队宝箱
31040002;降妖福袋
31040003;福值宝箱
31040004;法阵碎片福袋
31040005;法阵碎片福袋
31040006;神兵碎片福袋
31040007;仙翼碎片福袋
31040008;时装碎片福袋
31040009;天珠碎片福袋
31040010;三千福袋
31040011;极品灵宠法阵
31040012;极品仙器法阵
31040013;极品神兵宝箱
31040014;极品仙翼宝箱
31040015;极品时装宝箱
31040016;极品天珠宝箱
31040017;吉运礼包
31040018;惊喜礼包
31040019;极品法阵礼盒
31040020;极品外显礼包
31040021;极品外显福袋
31050001;天运福袋
31050002;法阵福袋
31050003;法阵福袋
31050004;神兵福袋
31050005;仙翼福袋
31050006;时装福袋
31050007;天珠福袋
31050008;奢华宝箱
31050011;绝品灵宠法阵
31050012;绝品仙器法阵
31050013;绝品神兵宝箱
31050014;绝品仙翼宝箱
31050015;绝品时装宝箱
31050016;绝品天珠宝箱
31050019;尊贵法阵礼盒
31050020;尊贵外显礼包
31050021;尊贵外显福袋
31120001;符文精华宝箱
31120002;随机符文宝箱
31130001;符文精华宝箱
31130002;随机符文宝箱
31140001;符文精华宝箱
31140002;随机符文宝箱
31150001;符文精华宝箱
31150002;随机符文宝箱
31220001;九天之巅礼包
31220002;九天之巅礼包
31220003;九天之巅礼包
31230001;九天之巅礼包
31230002;九天之巅礼包
31230003;九天之巅礼包
31240001;九天之巅礼包
31240002;九天之巅礼包
31240003;九天之巅礼包
31240004;九天之巅礼包
31250001;九天之巅礼包
31250002;九天之巅礼包
31250003;九天之巅礼包
31320001;仙府活跃礼包
31330001;仙府活跃礼包
31330002;仙府活跃礼包
31340001;仙府活跃礼包
31450001;秘境击杀礼包
31450002;秘境击杀礼包
31450003;秘境击杀礼包
31450004;秘境击杀礼包
31450005;秘境击杀礼包
31450006;秘境击杀礼包
31450007;秘境击杀礼包
31540001;法宝大礼包
31540002;灵宠大礼包
31540003;仙器大礼包
31540004;神兵大礼包
31540005;仙翼大礼包
31540006;碎片福袋
31540009;时装大礼包
31540010;天珠大礼包
31640001;单人BOSS资源
31640002;单人BOSS资源
31640003;单人BOSS资源
31640004;单人BOSS资源
31640005;单人BOSS资源
31640006;单人BOSS资源
31640007;单人BOSS资源
31640008;单人BOSS资源
31640009;多人BOSS资源
31640010;多人BOSS资源
31640011;多人BOSS资源
31640012;多人BOSS资源
31640013;多人BOSS资源
31640014;多人BOSS资源
31640015;多人BOSS资源
31640016;多人BOSS资源
31640017;天降财宝资源
31640018;天降财宝资源
31640019;天降财宝资源
31640020;天降财宝资源
31640021;天降财宝资源
31640022;天降财宝资源
31640023;天降财宝资源
31640024;天降财宝资源
31640025;昆仑瑶池资源
31640026;昆仑瑶池资源
31640027;昆仑瑶池资源
31640028;昆仑瑶池资源
31640029;昆仑瑶池资源
31640030;昆仑瑶池资源
31640031;昆仑瑶池资源
31640032;昆仑瑶池资源
31640033;云梦秘境资源
31640034;云梦秘境资源
31640035;云梦秘境资源
31640036;云梦秘境资源
31640037;云梦秘境资源
31640038;云梦秘境资源
31640039;云梦秘境资源
31640040;云梦秘境资源
31750001;圣殿1层归属
31750002;圣殿2层归属
31750003;圣殿3层归属
31750004;圣殿4层归属
31750005;圣殿5层归属
31750006;圣殿6层归属
31750007;圣殿7层归属
31750008;圣殿1层幸运
31750009;圣殿2层幸运
31750010;圣殿3层幸运
31750011;圣殿4层幸运
31750012;圣殿5层幸运
31750013;圣殿6层幸运
31750014;圣殿7层幸运
31750015;圣殿1层参与
31750016;圣殿2层参与
31750017;圣殿3层参与
31750018;圣殿4层参与
31750019;圣殿5层参与
31750020;圣殿6层参与
31750021;圣殿7层参与
39920010;蓝品图鉴任选
39930001;紫品符文任选
39930002;紫品符文任选
39930010;紫品图鉴任选
39940001;橙品符文任选
39940002;橙品符文任选
39940010;橙品图鉴任选
39940011;祥饰风水任选
39940012;瑞景风水任选
39940013;吉物风水任选
39940023;4阶橙2星装备
39940024;5阶橙2星装备
39940025;6阶橙2星装备
39940026;7阶橙2星装备
39940027;8阶橙2星装备
39940028;9阶橙2星装备
39940029;10阶橙2星装备
39940030;11阶橙2星装备
39940031;12阶橙2星装备
39940032;13阶橙2星装备
39950001;红品符文任选
39950002;红品符文任选
39950010;红品图鉴任选
39950023;4阶红2星装备
39950024;5阶红2星装备
39950025;6阶红2星装备
39950026;7阶红2星装备
39950027;8阶红2星装备
39950028;9阶红2星装备
39950029;10阶红2星装备
39950030;11阶红2星装备
39950031;12阶红2星装备
39950032;13阶红2星装备
39950040;1阶BOSS武器箱
39950041;1阶BOSS帽子箱
39950042;1阶BOSS衣服箱
39950043;1阶BOSS护手箱
39950044;1阶BOSS鞋子箱
39950045;1阶BOSS腰带箱
39950046;1阶BOSS项链箱
39950047;1阶BOSS手镯箱
39950048;2阶BOSS武器箱
39950049;2阶BOSS帽子箱
39950050;2阶BOSS衣服箱
39950051;2阶BOSS护手箱
39950052;2阶BOSS鞋子箱
39950053;2阶BOSS腰带箱
39950054;2阶BOSS项链箱
39950055;2阶BOSS手镯箱
39950056;3阶BOSS武器箱
39950057;3阶BOSS帽子箱
39950058;3阶BOSS衣服箱
39950059;3阶BOSS护手箱
39950060;3阶BOSS鞋子箱
39950061;3阶BOSS腰带箱
39950062;3阶BOSS项链箱
39950063;3阶BOSS手镯箱
39950110;10级仙石任选
39950111;11级仙石任选
39950112;12级仙石任选
39950113;13级仙石任选
39950114;14级仙石任选
39950115;15级仙石任选
60120001;混元伞
60120002;巽风袋
60120003;八卦云光帕
60120004;捆仙索
60120005;照妖镜
60120006;降魔杵
60120007;金莲宝座
60120008;灭渡金环
60120009;五云锁仙屏
60120010;天蝉灵叶
60120011;镇妖塔
60120012;紫绶仙衣
60120013;万鬼幡
60120014;聚妖铃
60120015;乾天火灵珠
60120016;南明离火剑
60230001;番天印
60230002;阴阳镜
60230003;混元锤
60230004;五火七禽扇
60230005;清净琉璃瓶
60230006;紫金铃
60230007;乾坤圈
60230008;九龙神火罩
60230009;定海神珠
60230010;落魂钟
60230011;大禹鼎
60230012;化血神刀
60340001;日月神轮
60340002;山河社稷图
60340003;七宝妙树
60340004;乾坤鼎
60340005;六魂幡
60340006;三宝玉如意
60340007;紫金葫芦
60340008;青萍剑
60340009;先天五行旗
60340010;昊天塔
60340011;弑神枪
60340012;金刚镯
60450001;盘古幡
60450002;太极图
60450003;东皇钟
60450004;玲珑宝塔
60450005;炼妖壶
60450006;混沌珠
60450007;开天斧
60450008;女娲石
60450009;轩辕剑
60450010;造化玉碟
90140001;元宝
90240001;绑定元宝
90330001;金币
90430001;经验
90530001;真气
90640001;万剑诛仙
90640002;剑荡八荒
90640003;太极洞玄
90640004;神印囚天
90640005;法镇乾坤
90640006;雷动九天
90640007;千幻玄剑
90640008;天魔临世
90640009;金刚怒目
90640010;天罡护佑
90640011;地煞夺魂
90640012;破天裂甲
90640013;真元固本
90640014;摩柯无量
90640015;八卦迷心
90640016;不动明王
90640017;七星禁神
90640018;女娲之道
90640019;伏羲之道
90640020;祝融之道
90640021;共工之道
90640022;盘古之道
90640023;玄灵秘印
90640024;极阳雷动
90640025;天元星爆
90640026;大道无术
90640027;碎魂炼血
90640028;天地无极
90640029;坠星奔袭
90730001;熔炼经验
90840001;装备积分
90940001;巅峰积分
91040001;至尊积分
91140001;符文积分
91240001;法宝积分
91330001;斩风
91330002;焚隐
91330003;太阿
91330004;承影
91340001;赤霄吟
91340002;月神舞
91340003;龙渊啸
91340004;墨惊邪
91350001;十方俱灭
91350002;冰魄灵霜
91350003;炽焱焚星
91350004;天道雷霆
91430001;白华羽
91430002;紫枭翅
91430003;玲珑蝶羽
91430004;琉璃玄翼
91440001;紫寰飞翎
91440002;玄冥凌羽
91440003;焚魔圣翼
91440004;炽炎凤翎
91450001;太初灵罗羽
91450002;永夜幻霓翅
91450003;浮屠堕天翼
91450004;涅槃天凰翅
91550001;混沌圣子
91550002;荒古魔猿
91550003;太虚祖龙
91650001;御风犬神
91650002;瑶池墨鳞
91650003;耀世璃龙
91740001;符文精华
91830001;灵气值
91930001;富贵值
92030001;风水值
92120001;灌灌
92120002;长右
92120003;蛮蛮
92120004;山魈
92120005;飞鼠
92120006;臽父之鱼
92120007;豪鱼
92120008;鸣蛇
92120009;巴蛇
92120010;朱蛾
92130001;旋龟
92130002;化蛇
92130003;嚣
92130004;肥遗
92130005;狰
92130006;孟槐
92130007;诸犍
92130008;旄牛
92130009;犀渠
92130010;当康
92140001;朱厌
92140002;罗罗鸟
92140003;天狗
92140004;穷奇
92140005;窥窳
92140006;精卫
92140007;夔牛
92140008;比翼
92140009;乘黄
92140010;兕
92150001;九尾狐
92150002;凤凰
92150003;龙鲤
92150004;鸾鸟
92150005;天马
92150006;夫诸
92150007;毕方
92150008;开明
92230001;天梯积分
92340001;荣誉值
92430001;天梯功勋
92530001;仙府活跃值
92630001;云梦密令
92740001;奇遇点
92830001;运力值
92930001;风吼阵
92930002;天阙阵
92930003;金光阵
92930004;寒冰阵
92940001;四象聚灵阵
92940002;北斗七星阵
92940003;真武七截阵
92940004;九曲黄河阵
92950001;血海轮回阵
92950002;都天神煞阵
92950003;周天星斗阵
92950004;两仪微尘阵
93030001;归流阵
93030002;落魂阵
93030003;锁云阵
93030004;天绝阵
93040001;太极八卦阵
93040002;天罡北斗阵
93040003;九天伏魔阵
93040004;大轮明王阵
93050001;须弥混沌阵
93050002;混元无极阵
93050003;无量衍天阵
93050004;六道轮回阵
93140001;灵宠升阶激活
93240001;仙器升阶激活
93340001;仙力值
93430001;贡献
93530001;紫魅幻影
93530002;黄金圣甲
93530003;流光韶华
93530004;珍品4阶时装
93540001;优雅管家
93540002;热血校园
93540003;青春偶像
93540004;金属摇滚
93550001;异域舞者
93550002;甜心玩偶
93550003;樱花恋人
93550004;机械之心
93630001;避尘珠
93630002;定风珠
93630003;沧海珠
93630004;幻月珠
93640001;苍穹灵珠
93640002;幽冥灵珠
93640003;七窍灵珠
93640004;赤曜灵珠
93650001;炽凤神珠
93650002;轮转神珠
93650003;虚弥神珠
93650004;羲和神珠
93730001;仙盟经验
93840001;太皇剑碎片一
93840002;太皇剑碎片二
93840003;炼神壶碎片一
93840004;炼神壶碎片二
93840005;炼神壶碎片三
93840006;炼神壶碎片四
93840007;无始钟碎片一
93840008;无始钟碎片二
93840009;无始钟碎片三
93840010;无始钟碎片四
93840011;魔罗伞碎片一
93840012;魔罗伞碎片二
93840013;魔罗伞碎片三
93840014;魔罗伞碎片四
93840015;幽冥血莲碎片
93840016;幽冥血莲碎片
93840017;幽冥血莲碎片
93840018;幽冥血莲碎片
93840019;万龙铃碎片一
93840020;万龙铃碎片二
93840021;万龙铃碎片三
93840022;万龙铃碎片四
93840023;四海瓶碎片一
93840024;四海瓶碎片二
93840025;四海瓶碎片三
93840026;四海瓶碎片四
93840027;七宝浮屠碎片
93840028;七宝浮屠碎片
93840029;七宝浮屠碎片
93840030;七宝浮屠碎片
93840031;天帝鼎碎片一
93840032;天帝鼎碎片二
93840033;天帝鼎碎片三
93840034;天帝鼎碎片四
93840035;炼狱轮碎片一
93840036;炼狱轮碎片二
93840037;炼狱轮碎片三
93840038;炼狱轮碎片四
93840039;太虚镜碎片一
93840040;太虚镜碎片二
93840041;太虚镜碎片三
93840042;太虚镜碎片四
93840043;龙雀环碎片一
93840044;龙雀环碎片二
93840045;龙雀环碎片三
93840046;龙雀环碎片四
93840047;青冥扇碎片一
93840048;青冥扇碎片二
93840049;青冥扇碎片三
93840050;青冥扇碎片四
93840051;赤星龙炎碎片
93840052;赤星龙炎碎片
93840053;赤星龙炎碎片
93840054;赤星龙炎碎片
93840055;神禹令碎片一
93840056;神禹令碎片二
93840057;神禹令碎片三
93840058;神禹令碎片四
93840059;人皇印碎片一
93840060;人皇印碎片二
93840061;人皇印碎片三
93840062;人皇印碎片四
93840063;虚空镜碎片一
93840064;虚空镜碎片二
93840065;虚空镜碎片三
93840066;虚空镜碎片四
93840067;创世青莲碎片
93840068;创世青莲碎片
93840069;创世青莲碎片
93840070;创世青莲碎片
93840071;琉璃盏碎片一
93840072;琉璃盏碎片二
93840073;琉璃盏碎片三
93840074;琉璃盏碎片四
93840075;恒宇轮碎片一
93840076;恒宇轮碎片二
93840077;恒宇轮碎片三
93840078;恒宇轮碎片四
93840079;混元道葫碎片
93840080;混元道葫碎片
93840081;混元道葫碎片
93840082;混元道葫碎片
93840083;逍遥扇碎片一
93840084;逍遥扇碎片二
93840085;逍遥扇碎片三
93840086;逍遥扇碎片四
93840087;伏羲琴碎片一
93840088;伏羲琴碎片二
93840089;伏羲琴碎片三
93840090;伏羲琴碎片四
93840091;河图洛书碎片
93840092;河图洛书碎片
93840093;河图洛书碎片
93840094;河图洛书碎片
93840095;十二都天旗碎
93840096;十二都天旗碎
93840097;十二都天旗碎
93840098;十二都天旗碎
93950001;10%奖池元宝
93950002;20%奖池元宝
93950003;30%奖池元宝
93950004;50%奖池元宝
94040001;VIP经验
94150001;仙玉
94210101;一阶攻击丹
94210102;一阶生命丹
94210103;一阶防御丹
94210104;一阶破防丹
94210105;一阶命中丹
94210106;一阶闪避丹
94210107;一阶暴击丹
94210108;一阶韧性丹
94220101;二阶攻击丹
94220102;二阶生命丹
94220103;二阶防御丹
94220104;二阶破防丹
94220105;二阶命中丹
94220106;二阶闪避丹
94220107;二阶暴击丹
94220108;二阶韧性丹
94230101;三阶攻击丹
94230102;三阶生命丹
94230103;三阶防御丹
94230104;三阶破防丹
94230105;三阶命中丹
94230106;三阶闪避丹
94230107;三阶暴击丹
94230108;三阶韧性丹
94240101;四阶攻击丹
94240102;四阶生命丹
94240103;四阶防御丹
94240104;四阶破防丹
94240105;四阶命中丹
94240106;四阶闪避丹
94240107;四阶暴击丹
94240108;四阶韧性丹
94250101;五阶攻击丹
94250102;五阶生命丹
94250103;五阶防御丹
94250104;五阶破防丹
94250105;五阶命中丹
94250106;五阶闪避丹
94250107;五阶暴击丹
94250108;五阶韧性丹
94340001;体力值