{
    "Achievement":"成就",
    "Bag":"人物背包",
    "Daily":"日常",
    "EquipTreasure":"装备抽奖",
    "FayinTreasure":"法印抽奖",
    "Jizi":"集字",
    "Kaifukuanghuan":"开服冲榜",
    "LevelPack":"等级礼包",
    "LoginActivity":"七天登录",
    "SignIn":"签到",
    "Supplicate":"摇钱树",
    "Yuling":"御灵寻主",
    "Beast":"灵兽",
    "ChangeOcc":"转职",
    "Designation":"称号",
    "DownRes":"资源下载",
    "Faction":"帮派",
    "Fashion":"时装",
    "Fayin":"法印",
    "FeedBack":"反馈",
    "Friend":"好友",
    "GoldPoint":"点石成金",
    "InvestGold":"元宝投资",
    "InvestMonthCard":"月卡投资",
    "Mall":"商城",
    "OnlineAward":"在线奖励",
    "Pet":"法器",
    "Recharge":"充值",
    "FirstRecharge":"首充大礼",
    "ContinueRecharge":"连续充值",
    "WuxianHaoli":"无限豪礼",
    "Ride":"坐骑",
    "Shenbing":"神兵",
    "Shenhun":"内丹",
    "Skill":"技能",
    "Strengthen":"我要变强",
    "WingRefine":"翅膀精炼",
    "Taozhuang":"套钻打造",
    "GemInlay":"宝石镶嵌",
    "Xilian":"洗练",
    "WingSynthetic":"翅膀合成",
    "MaterialSynthetic":"材质合成",
    "TicketSynthetic":"门票合成",
    "EquipSynthetic":"装备合成",
    "Title":"头衔",
    "VipBoss":"BOSS之家",
    "EvilBoss":"虚无境地",
    "BeastBoss":"灵兽打宝",
    "SingleTreasure":"单人打宝",
    "GuildRedPacket":"仙盟红包",
    "ZizhuJiadian":"自主加点",
    "SkillLevelUp":"技能升级",
    "task1":"赏金",
    "task2":"经验副本",
    "task3":"组队打宝",
    "task4":"配饰宝库",
    "task5":"灵魂材料副本",
    "task6":"洗练副本",
    "task7":"法器经验副本",
    "task8":"技能经验副本",
    "task9":"铜钱强化",
    "task10":"击杀怪物",
    "task11":"世界BOSS",
    "task12":"仙盟任务",
    "task13":"野外挂机",
    "task14":"离线挂机",
    "task15":"内丹副本",
    "task16":"PK场",
    "limit1":"仙盟争霸",
    "limit2":"跨服天梯",
    "limit3":"限时找茬",
    "limit4":"全民真心话",
    "limit5":"竞技场",
    "limit6":"乱斗场",
    "limit7":"限时打宝",
    "limit8":"仙盟宴会",
    "limit9":"仙城守卫",
    "limit10":"盗宝小妖",
    "Inborn" : "天赋"
}